{
    "Name": "Pastel Blue TV Head",
    "Description": "A cosplay piece.",
    "PurchasePrice": "150",
    "ShowHair": false,
    "IgnoreHairstyleOffset": false,
    "NameLocalization": {},
    "DescriptionLocalization": {},
}